{
  "code": "0",
  "data": {
    "pagination": {
      "page": 1,
      "size": 10,
      "totalPage": 19,
      "total": 188
    },
    "result": [
      {
        "content": "很浓厚的中药香味，贴在肚子上暖暖的，不烫，不知道姨妈来的时候会不会一样舒服，谢谢网易好品",
        "createTime": 1529632314279,
        "skuInfo": [
          "灰湖绿（腰枕含草本香包）"
        ],
        "star": 5,
        "itemId": 1562000,
        "frontUserName": "b****3",
        "picList": [
          "https://yanxuan.nosdn.127.net/a2ca9e31b7e6ced79375b8424868e34c.jpg"
        ],
        "memberLevel": 5
      },
      {
        "content": "颜色好看，质量好，淡淡的中药香味让人神清气爽，就是使用时找不到线，感谢客服很耐心指导，已经用了，很好用，满意！",
        "createTime": 1528466232969,
        "skuInfo": [
          "豆沙粉（腰枕含草本香包）"
        ],
        "frontUserAvatar": "http://q.qlogo.cn/qqapp/1104949895/C4E012F031DE7BEFAEE5889FFD0171FB/100",
        "star": 5,
        "itemId": 1562000,
        "frontUserName": "安****",
        "picList": [
          "https://yanxuan.nosdn.127.net/1f31b3dac05be41ec1d1a750d6bf027d.jpg",
          "https://yanxuan.nosdn.127.net/fe67dda4922526871d1944204b41a572.jpg",
          "https://yanxuan.nosdn.127.net/aa6abf2fcb74e49c7c3771b6c147b373.jpg"
        ],
        "memberLevel": 6
      },
      {
        "content": "颜色很好看，水墨蓝，摸起来也很舒服",
        "createTime": 1530508430299,
        "skuInfo": [
          "灰湖绿（腰枕含草本香包）"
        ],
        "frontUserAvatar": "https://yanxuan.nosdn.127.net/c6af6667655c62298af3f742ad71fee3.jpg",
        "star": 5,
        "itemId": 1562000,
        "frontUserName": "1****4",
        "picList": [
          "https://yanxuan.nosdn.127.net/be42c514eb2dab25460af8396f886200.jpg"
        ],
        "memberLevel": 1
      },
      {
        "content": "这个蓝色跟按摩靠枕正好配一脸，晚上糊着暖宫带，靠着按摩枕简直给个县委副书记都不换啊。作为一个土埋了三分一的人诚挚的向各位推荐这两款让幸福感和获得感直线上升的产品。",
        "createTime": 1530631757871,
        "skuInfo": [
          "灰湖绿（腰枕含草本香包）"
        ],
        "frontUserAvatar": "https://yanxuan.nosdn.127.net/795ca4de211cf20536b63c90f1adc053.jpg",
        "star": 5,
        "itemId": 1562000,
        "frontUserName": "y****3",
        "picList": [
          "https://yanxuan.nosdn.127.net/426b064c8c0e1582a3363a907592fdfc.jpg",
          "https://yanxuan.nosdn.127.net/0957be44d56e6e7fe7d96e32baab131a.jpg",
          "https://yanxuan.nosdn.127.net/4651608bb40b453c55d20afc6a4f2417.jpg"
        ],
        "memberLevel": 5
      },
      {
        "content": "草药味道，主要是艾草的。",
        "createTime": 1530508424495,
        "skuInfo": [
          "草本香包"
        ],
        "frontUserAvatar": "https://yanxuan.nosdn.127.net/c6af6667655c62298af3f742ad71fee3.jpg",
        "star": 5,
        "itemId": 1562000,
        "frontUserName": "1****4",
        "picList": [
          "https://yanxuan.nosdn.127.net/21080d12aea1732ca92473c759057b61.jpg"
        ],
        "memberLevel": 1
      },
      {
        "content": "好像很高大上哦，准备去办公室插电脑上使用",
        "createTime": 1529553378868,
        "skuInfo": [
          "豆沙粉（腰枕含草本香包）"
        ],
        "frontUserAvatar": "https://yanxuan.nosdn.127.net/8af07443b198863552332cd1581e7bcf.jpg",
        "star": 5,
        "itemId": 1562000,
        "frontUserName": "安****羊",
        "picList": [
          "https://yanxuan.nosdn.127.net/7e72db3061a26d1e8bcb447e44e1d79a.jpg",
          "https://yanxuan.nosdn.127.net/9cb1ef71385b59b56d900348c9feb502.jpg"
        ],
        "memberLevel": 5
      },
      {
        "content": "很好用",
        "createTime": 1529718903671,
        "skuInfo": [
          "豆沙粉（腰枕含草本香包）"
        ],
        "star": 5,
        "itemId": 1562000,
        "frontUserName": "1****3",
        "picList": [
          "https://yanxuan.nosdn.127.net/89f82c0850b0c66692b9ba59936b853f.jpg"
        ],
        "memberLevel": 4
      },
      {
        "content": "打开满满的草药味闻起来很安心，严选一如既往的好做工，操作很简单，长按即可开机，usb口很方便，留了专门塞充电宝的口袋简直太贴心了，还有专门的收纳袋，出门带也很方便，希望可以缓解宫寒，严选出品放心^_^",
        "createTime": 1528350852996,
        "skuInfo": [
          "豆沙粉（腰枕含草本香包）"
        ],
        "frontUserAvatar": "https://yanxuan.nosdn.127.net/e6800c5257bc86642bf274e361a7e9f7",
        "star": 5,
        "itemId": 1562000,
        "frontUserName": "特****明",
        "picList": [
          "https://yanxuan.nosdn.127.net/c46ca32642fc65ee0900ebc85fb01e14.jpg",
          "https://yanxuan.nosdn.127.net/67a4edf4bea6f4843a087fb385c48df6.jpg",
          "https://yanxuan.nosdn.127.net/7a5aefabcc6de97a48c5fe54d11d7985.jpg",
          "https://yanxuan.nosdn.127.net/cfb80963c712674dba8fae65919a41ae.jpg"
        ],
        "memberLevel": 3
      },
      {
        "content": "很喜欢，痛经时可以用，一直想要买这个这样的，这款可以用充电宝，很方便。",
        "createTime": 1529191735557,
        "commentReplyVO": {
          "id": 20156680,
          "createTime": "2018-06-17 14:27:45",
          "replyContent": "感谢您对我们产品的支持，祝您生活愉快，工作顺利！"
        },
        "skuInfo": [
          "豆沙粉（腰枕含草本香包）"
        ],
        "star": 5,
        "itemId": 1562000,
        "frontUserName": "1****3",
        "picList": [],
        "memberLevel": 1
      },
      {
        "content": "东西不错真心不错，就是不知道如何充电？？？求解",
        "createTime": 1529587741825,
        "commentReplyVO": {
          "id": 20160681,
          "createTime": "2018-06-22 16:14:00",
          "replyContent": "亲爱的用户，此款商品充电线在侧边插槽中，需配合充电宝使用，也可接电脑USB接口~关于您咨询的情况，小选建议长按开关键，在指示灯闪烁后，可根据所需要的温度进行调节；若您使用完毕，长按开关键即可关闭电源~感谢您的支持，祝您生活愉快！"
        },
        "skuInfo": [
          "灰湖绿（腰枕含草本香包）"
        ],
        "star": 5,
        "itemId": 1562000,
        "frontUserName": "z****e",
        "picList": [],
        "memberLevel": 3
      }
    ]
  }
}